{
  "version": "v4",
  "repo": "borisyankov/DefinitelyTyped",
  "ref": "master",
  "path": "typings",
  "bundle": "typings/tsd.d.ts",
  "installed": {
    "jasmine/jasmine.d.ts": {
      "commit": "6436105ed9e3f9de49ca7e2e010ffe298e884e40"
    },
    "angularjs/angular.d.ts": {
      "commit": "6436105ed9e3f9de49ca7e2e010ffe298e884e40"
    },
    "lodash/lodash.d.ts": {
      "commit": "6436105ed9e3f9de49ca7e2e010ffe298e884e40"
    },
    "jquery/jquery.d.ts": {
      "commit": "6436105ed9e3f9de49ca7e2e010ffe298e884e40"
    },
    "angular-protractor/angular-protractor.d.ts": {
      "commit": "6436105ed9e3f9de49ca7e2e010ffe298e884e40"
    },
    "selenium-webdriver/selenium-webdriver.d.ts": {
      "commit": "6436105ed9e3f9de49ca7e2e010ffe298e884e40"
    }
  }
}